{
  "name": "ObservableVersion",
  "base": "PersistedModel",
  "idInjection": true,
  "options": {
    "validateUpsert": true
  },
  "properties": {
    "observable_id": {
      "type": "number",
      "required": true
    },
    "name": {
      "type": "string",
      "required": true
    },
    "x_name": {
      "type": "string",
      "required": true
    },
    "y_name": {
      "type": "string",
      "required": true
    },
    "x_latex_name": {
      "type": "string",
      "required": true
    },
    "y_latex_name": {
      "type": "string",
      "required": true
    },
    "dataset_id": {
      "type": "number",
      "required": true
    }
  },
  "validations": [],
  "relations": {
    "observable": {
      "type": "belongsTo",
      "model": "Observable",
      "foreignKey": "observable_id"
    },
    "dataset": {
      "type": "belongsTo",
      "model": "Dataset",
      "foreignKey": "dataset_id"
    }
  },
  "acls": [],
  "methods": {}
}
